More Modeling Basics
…
To visualise these models we need two new tricks:

We have two predictors, so we need to give data_grid() both variables. It finds all the unique values of x1 and x2 and then generates all combinations.

To generate predictions from both models simultaneously, we can use gather_predictions() which adds each prediction as a row. The complement of gather_predictions() is spread_predictions() which adds each prediction to a new column.

Together this gives us:

grid <- sim3 %>% 
  data_grid(x1, x2) %>% 
  gather_predictions(mod1, mod2)
grid

## # A tibble: 80 × 4
##    model    x1     x2     pred
##    <chr> <int> <fctr>    <dbl>
## 1   mod1     1      a 1.674928
## 2   mod1     1      b 4.562739
## 3   mod1     1      c 6.480664
## 4   mod1     1      d 4.034515
## 5   mod1     2      a 1.478190
## 6   mod1     2      b 4.366001
## 7   mod1     2      c 6.283926
## 8   mod1     2      d 3.837777
## 9   mod1     3      a 1.281453
## 10  mod1     3      b 4.169263
## # ... with 70 more rows
…
