Modeling Basics
…
## [1] 2.665212

purrr

Now we can use purrr to compute the distance for all the models defined above. We need a helper function because our distance function expects the model as a numeric vector of length 2.

sim1_dist <- function(a1, a2) {
  measure_distance(c(a1, a2), sim1)
}

models <- models %>% 
  mutate(dist = purrr::map2_dbl(a1, a2, sim1_dist))
models

## # A tibble: 250 × 3
##            a1        a2      dist
##         <dbl>     <dbl>     <dbl>
## 1   -1.862446 -1.887522 30.041522
## 2  -13.060192 -2.291445 43.068437
## 3   25.709318 -3.996407 21.093813
## 4   38.056373 -3.500355 16.422965
## 5   -6.607000  1.205726 15.813099
## 6   -8.747213 -2.877722 42.559429
## 7  -11.359571  3.159386 10.230428
## 8   -9.494538  3.888237  6.739263
## 9   -4.241306  4.442809  8.584836
## 10  36.646607  2.272369 33.713600
## # ... with 240 more rows
…
Residuals

The flip-side of predictions are residuals. The predictions tells you the pattern that the model has captured, and the residuals tell you what the model has missed. The residuals are just the distances between the observed and predicted values that we computed above.

Residuals

We add residuals to the data with add_residuals(), which works much like add_predictions(). Note, however, that we use the original dataset, not a manufactured grid. This is because to compute residuals we need actual y values.

sim1 <- sim1 %>% 
  add_residuals(sim1_mod)
sim1

## # A tibble: 30 × 3
##        x         y        resid
##    <int>     <dbl>        <dbl>
## 1      1  4.199913 -2.072442018
## 2      1  7.510634  1.238279125
## 3      1  2.125473 -4.146882207
## 4      2  8.988857  0.664969362
## 5      2 10.243105  1.919217378
## 6      2 11.296823  2.972935148
## 7      3  7.356365 -3.019056466
## 8      3 10.505349  0.129928252
## 9      3 10.511601  0.136179642
## 10     4 12.434589  0.007634878
## # ... with 20 more rows
…
