The tidyverse continues
…
Now column that includes the variable names is key, here it is Data Item.

Column that contains the values is the value column, here they already have it as Values

spread(oats, key = `Data Item`, value = Value)

## # A tibble: 150 × 8
##     Year Commodity `OATS - ACRES HARVESTED` `OATS - ACRES PLANTED`
## *  <int>     <chr>                    <dbl>                  <dbl>
## 1   1866      OATS                   450000                     NA
## 2   1867      OATS                   500000                     NA
## 3   1868      OATS                   560000                     NA
## 4   1869      OATS                   610000                     NA
## 5   1870      OATS                   660000                     NA
## 6   1871      OATS                   750000                     NA
## 7   1872      OATS                   850000                     NA
## 8   1873      OATS                   910000                     NA
## 9   1874      OATS                   960000                     NA
## 10  1875      OATS                  1075000                     NA
## # ... with 140 more rows, and 4 more variables: `OATS - PRODUCTION,
## #   MEASURED IN $` <dbl>, `OATS - PRODUCTION, MEASURED IN BU` <dbl>, `OATS
## #   - YIELD, MEASURED IN BU / ACRE` <dbl>, `OATS - YIELD, MEASURED IN BU /
## #   NET PLANTED ACRE` <dbl>
…
