Data on the Web
…
Protip

Use our package isdparser

library(isdparser)
isd_parse(path = basename(url))

#> # A tibble: 1,038 × 130
#>    total_chars usaf_station wban_station       date  time date_flag
#>          <dbl>        <chr>        <chr>     <date> <chr>     <chr>
#> 1           36       010510        99999 1991-01-01  1200         4
#> 2           80       010510        99999 1991-01-01  1800         4
#> 3          109       010510        99999 1991-01-02  0600         4
#> 4           36       010510        99999 1991-01-02  1200         4
#> 5          118       010510        99999 1991-01-02  1800         4
#> 6          131       010510        99999 1991-01-03  0600         4
#> 7           58       010510        99999 1991-01-03  1200         4
#> 8          102       010510        99999 1991-01-03  1800         4
#> 9          131       010510        99999 1991-01-04  0600         4
#> 10          36       010510        99999 1991-01-04  1200         4
#> # ... with 1,028 more rows, and 124 more variables: latitude <dbl>,
#> #   longitude <dbl>, type_code <chr>, elevation <dbl>, call_letter <chr>,
#> #   quality <chr>, wind_direction <dbl>, wind_direction_quality <chr>,
#> #   wind_code <chr>, wind_speed <dbl>, wind_speed_quality <chr>,
#> #   ceiling_height <chr>, ceiling_height_quality <chr>,
#> #   ceiling_height_determination <chr>, ceiling_height_cavok <chr>,
#> #   visibility_distance <chr>, visibility_distance_quality <chr>,
#> #   visibility_code <chr>, visibility_code_quality <chr>,
#> #   temperature <dbl>, temperature_quality <chr>,
…
